{
    "os": "Windows-10-10.0.19041-SP0",
    "python": "3.8.5",
    "heartbeatAt": "2022-09-15T08:18:36.265163",
    "startedAt": "2022-09-15T08:18:35.247233",
    "docker": null,
    "cpu_count": 12,
    "cuda": null,
    "args": [],
    "state": "running",
    "program": "c:\\Users\\tay.yq.XTRAMAN\\Documents\\GitLab\\text-analytics\\notebooks\\sentiments_training_script.py",
    "codePath": "notebooks\\sentiments_training_script.py",
    "git": {
        "remote": "https://gitlab.com/tyqiangz/text-analytics.git",
        "commit": "6f8a26fa949b6598753bbca6a57c3ffa45b27b87"
    },
    "email": "tay.yongqiang@gmail.com",
    "root": "C:/Users/tay.yq.XTRAMAN/Documents/GitLab/text-analytics",
    "host": "tayyq-PC",
    "username": "tay.yq",
    "executable": "C:\\Users\\tay.yq.XTRAMAN\\Anaconda3\\python.exe"
}
