{
  "_data_files": [
    {
      "filename": "dataset.arrow"
    }
  ],
  "_fingerprint": "9c3e003e3a738c1e",
  "_format_columns": null,
  "_format_kwargs": {},
  "_format_type": null,
  "_indexes": {},
  "_output_all_columns": false,
  "_split": "train"
}